Session 2: Data Wrangling and Visualization in R
…
which is much, much nicer. Notice that the chaining operator feeds in the object on its left as the first argument into the function on its right.

You might notice that these prices are actually strings. If we want to work with these as numbers, we’ll need to convert them. Let’s try using mutate, which allows us to create new columns – often by referring to existing ones.

clean_price <- function(price) as.numeric(gsub('\\$|,', '', price))

raw_listings %>%
  mutate(nprice = clean_price(price)) %>%
  select(name, price, nprice)

## # A tibble: 3,585 x 3
##                                             name   price nprice
##                                           <fctr>  <fctr>  <dbl>
##  1                    Sunny Bungalow in the City $250.00    250
##  2             Charming room in pet friendly apt  $65.00     65
##  3              Mexican Folk Art Haven in Boston  $65.00     65
##  4 Spacious Sunny Bedroom Suite in Historic Home  $75.00     75
##  5                           Come Home to Boston  $79.00     79
##  6                Private Bedroom + Great Coffee  $75.00     75
##  7           New Lrg Studio apt 15 min to Boston $100.00    100
##  8      "\"Tranquility\" on \"Top of the Hill\""  $75.00     75
##  9            6 miles away from downtown Boston!  $58.00     58
## 10             Perfect & Practical Boston Rental $229.00    229
## # ... with 3,575 more rows

We can also arrange this info (sort it) to see the lowest- or highest-priced listings:

raw_listings %>%
  mutate(nprice = clean_price(price)) %>%
  select(name, price, nprice) %>%
  arrange(price)

## # A tibble: 3,585 x 3
##                                                 name     price nprice
##                                               <fctr>    <fctr>  <dbl>
##  1                    Boston's Charlestown Navy Yard $1,000.00   1000
##  2                                      444 W 4th St $1,000.00   1000
##  3          130 Myrtle st Apartments by The Lyon Org $1,235.00   1235
##  4                 Mansion Flat in Heart of Back Bay $1,250.00   1250
##  5 Luxury Hi-Rise Living on Historic Boston Seaport! $1,250.00   1250
##  6                 Sublet on Hemenway Street - June! $1,275.00   1275
##  7               4+ BR Quiet, Deluxe, Charming House $1,300.00   1300
##  8                           1 bed Beacon Hill Close $1,345.00   1345
##  9                            Super big private room $1,372.00   1372
## 10     短租 Boston地区 东北大学对面 三室两厅主卧出租 $1,400.00   1400
## # ... with 3,575 more rows
…
Now, let’s learn some more verbs. Let’s say we’re interested in understanding the relationship between bedrooms and price. But some of the listings don’t have data on bedrooms; can we count how many?

raw_listings %>% count(is.na(bedrooms))

## # A tibble: 2 x 2
##   `is.na(bedrooms)`     n
##               <lgl> <int>
## 1             FALSE  3575
## 2              TRUE    10

Let’s filter these out:

raw_listings %>% filter(!is.na(bedrooms))

## # A tibble: 3,575 x 95
##          id                           listing_url    scrape_id
##       <int>                                <fctr>        <dbl>
##  1 12147973 https://www.airbnb.com/rooms/12147973 2.016091e+13
##  2  3075044  https://www.airbnb.com/rooms/3075044 2.016091e+13
##  3     6976     https://www.airbnb.com/rooms/6976 2.016091e+13
##  4  1436513  https://www.airbnb.com/rooms/1436513 2.016091e+13
##  5  7651065  https://www.airbnb.com/rooms/7651065 2.016091e+13
##  6 12386020 https://www.airbnb.com/rooms/12386020 2.016091e+13
##  7  5706985  https://www.airbnb.com/rooms/5706985 2.016091e+13
##  8  2843445  https://www.airbnb.com/rooms/2843445 2.016091e+13
##  9   753446   https://www.airbnb.com/rooms/753446 2.016091e+13
## 10   849408   https://www.airbnb.com/rooms/849408 2.016091e+13
## # ... with 3,565 more rows, and 92 more variables: last_scraped <fctr>,
## #   name <fctr>, summary <fctr>, space <fctr>, description <fctr>,
## #   experiences_offered <fctr>, neighborhood_overview <fctr>,
## #   notes <fctr>, transit <fctr>, access <fctr>, interaction <fctr>,
## #   house_rules <fctr>, thumbnail_url <fctr>, medium_url <fctr>,
## #   picture_url <fctr>, xl_picture_url <fctr>, host_id <int>,
## #   host_url <fctr>, host_name <fctr>, host_since <fctr>,
## #   host_location <fctr>, host_about <fctr>, host_response_time <fctr>,
## #   host_response_rate <fctr>, host_acceptance_rate <fctr>,
…
listings %>% summarise(avg.price = mean(price))

## # A tibble: 1 x 1
##   avg.price
##       <dbl>
## 1  174.0247

Now — what if we want to look at mean price by neighborhood? We can do that with group_by:

listings %>%
  group_by(neighbourhood_cleansed) %>%
  summarize(avg.price = mean(price))

## # A tibble: 25 x 2
##    neighbourhood_cleansed avg.price
##                    <fctr>     <dbl>
##  1                Allston 112.30769
##  2               Back Bay 241.27090
##  3            Bay Village 266.83333
##  4            Beacon Hill 224.69948
##  5               Brighton 118.76757
##  6            Charlestown 198.04505
##  7              Chinatown 232.35211
##  8             Dorchester  91.92509
##  9               Downtown 236.45930
## 10            East Boston 119.15333
## # ... with 15 more rows

Maybe we’re a little worried these averages are skewed by a few outlier listings. Let’s try

listings %>%
  group_by(neighbourhood_cleansed) %>%
  summarize(avg.price = mean(price),
            med.price = median(price),
            num = n())

## # A tibble: 25 x 4
##    neighbourhood_cleansed avg.price med.price   num
##                    <fctr>     <dbl>     <dbl> <int>
##  1                Allston 112.30769      85.0   260
##  2               Back Bay 241.27090     209.0   299
##  3            Bay Village 266.83333     206.5    24
##  4            Beacon Hill 224.69948     195.0   193
##  5               Brighton 118.76757      90.0   185
##  6            Charlestown 198.04505     180.0   111
##  7              Chinatown 232.35211     219.0    71
##  8             Dorchester  91.92509      73.0   267
##  9               Downtown 236.45930     225.0   172
## 10            East Boston 119.15333      99.0   150
## # ... with 15 more rows
…
cut(x, breaks = quantile(x)) takes a numeric vector x, and returns a vector of labels indicating which quartile each element of x falls into.

group_by can actually take any number of columns as arguments – it groups by all of them.

mean(x, na.rm=TRUE) takes the mean of x, ignoring any cases where x is missing.

ANSWER:

listings %>%
  mutate(price_bin = cut(price, breaks = quantile(price))) %>%
  group_by(bedrooms, price_bin) %>%
  summarise(mean_rating = mean(review_scores_rating, na.rm = TRUE),
            mean_back_bay_rating = mean(review_scores_rating[neighbourhood_cleansed == 'Back Bay'], na.rm = TRUE))

## # A tibble: 23 x 4
## # Groups:   bedrooms [?]
##    bedrooms   price_bin mean_rating mean_back_bay_rating
##       <int>      <fctr>       <dbl>                <dbl>
##  1        0     (10,85]    92.50000                  NaN
##  2        0    (85,150]    89.70492             91.65385
##  3        0   (150,220]    93.25806             93.60000
##  4        0 (220,4e+03]    93.50000             96.00000
##  5        1     (10,85]    90.16224             95.00000
##  6        1    (85,150]    92.81834             92.50000
##  7        1   (150,220]    93.02484             91.69048
##  8        1 (220,4e+03]    92.01843             89.69565
##  9        1        <NA>         NaN                  NaN
## 10        2     (10,85]    87.50000                  NaN
## # ... with 13 more rows
…
